digraph "state transitions" {
  fontname="Helvetica" fontsize=12 penwidth=2.0 splines=true ordering=out compound=true overlap=scale nodesep=0.3 ranksep=0.1 rankdir=LR
  node [shape=plaintext style=filled fillcolor="#FFFFFF01" fontname=Helvetica fontsize=12 penwidth=2.0]
  edge [fontname=Helvetica fontsize=10]

    "initial" [shape=circle style=filled class="state initial" fillcolor=black fixedsize=true height=0.15 label=""]
    "Providers" [margin=0 class="state regular" label= < 
      <table align="center" cellborder="0" border="2" style="rounded" width="48">
        <tr><td width="48" cellpadding="7">Providers</td></tr>
      </table>
    >]
    "Orders" [margin=0 class="state regular" label= < 
      <table align="center" cellborder="0" border="2" style="rounded" width="48">
        <tr><td width="48" cellpadding="7">Orders</td></tr>
      </table>
    >]
    "FinishedProduct" [margin=0 class="state regular" label= < 
      <table align="center" cellborder="0" border="2" style="rounded" width="48">
        <tr><td width="48" cellpadding="2">FinishedProduct</td></tr>
          <hr/>
          <tr><td align="left" cellpadding="2"></td></tr>
          
          <tr><td align="left" cellpadding="2">+ rawMaterial_kg / items_qty</td></tr>
          
          <tr><td align="left" cellpadding="2">+ rawMaterial_kg / wasteMaterial_kg</td></tr>
          
          <tr><td align="left" cellpadding="2"></td></tr>
      </table>
    >]
    "Sales" [margin=0 class="state regular" label= < 
      <table align="center" cellborder="0" border="2" style="rounded" width="48">
        <tr><td width="48" cellpadding="2">Sales</td></tr>
          <hr/>
          <tr><td align="left" cellpadding="2"></td></tr>
          
          <tr><td align="left" cellpadding="2">Waste/Devoluciones</td></tr>
          
          <tr><td align="left" cellpadding="2">FinishedProduct/ProductoTerminado</td></tr>
          
          <tr><td align="left" cellpadding="2"></td></tr>
      </table>
    >]
    "PuntoVenta" [margin=0 class="state regular" label= < 
      <table align="center" cellborder="0" border="2" style="rounded" width="48">
        <tr><td width="48" cellpadding="7">PuntoVenta</td></tr>
      </table>
    >]
    "AccountsReceivable" [margin=0 class="state regular" label= < 
      <table align="center" cellborder="0" border="2" style="rounded" width="48">
        <tr><td width="48" cellpadding="7">AccountsReceivable</td></tr>
      </table>
    >]
    "Incomes" [margin=0 class="state regular" label= < 
      <table align="center" cellborder="0" border="2" style="rounded" width="48">
        <tr><td width="48" cellpadding="7">Incomes</td></tr>
      </table>
    >]
    "Reports" [margin=0 class="state regular" label= < 
      <table align="center" cellborder="0" border="2" style="rounded" width="48">
        <tr><td width="48" cellpadding="2">Reports</td></tr>
          <hr/>
          <tr><td align="left" cellpadding="2"></td></tr>
          
          <tr><td align="left" cellpadding="2">Incomes</td></tr>
          
          <tr><td align="left" cellpadding="2">SalesPoint</td></tr>
          
          <tr><td align="left" cellpadding="2">Vendors</td></tr>
          
          <tr><td align="left" cellpadding="2"></td></tr>
      </table>
    >]
    subgraph "cluster_Warehouse" {
      class="state regular" label= <
      <table cellborder="0" border="0">
        <tr><td>Warehouse</td></tr>
      </table>
      > style=rounded penwidth=2.0
      "Warehouse" [shape=point style=invis margin=0 width=0 height=0 fixedsize=true]
        "Raw" [margin=0 class="state regular" label= < 
      <table align="center" cellborder="0" border="2" style="rounded" width="48">
        <tr><td width="48" cellpadding="7">Raw</td></tr>
      </table>
    >]
    "Finished" [margin=0 class="state regular" label= < 
      <table align="center" cellborder="0" border="2" style="rounded" width="48">
        <tr><td width="48" cellpadding="7">Finished</td></tr>
      </table>
    >]
    "Waste" [margin=0 class="state regular" label= < 
      <table align="center" cellborder="0" border="2" style="rounded" width="48">
        <tr><td width="48" cellpadding="7">Waste</td></tr>
      </table>
    >]
      "note_Raw" [color=black fontcolor=black label="Materia Prima a Granel\l" shape=note fontsize=10 fillcolor="#ffffcc" penwidth=1.0]
      "Raw" -> "note_Raw" [style=dashed arrowtail=none arrowhead=none]
      "note_Finished" [color=black fontcolor=black label="Producto Terminado\l" shape=note fontsize=10 fillcolor="#ffffcc" penwidth=1.0]
      "Finished" -> "note_Finished" [style=dashed arrowtail=none arrowhead=none]
      "note_Waste" [color=black fontcolor=black label="Merma de Material\l" shape=note fontsize=10 fillcolor="#ffffcc" penwidth=1.0]
      "Waste" -> "note_Waste" [style=dashed arrowtail=none arrowhead=none]
  
    }
    subgraph "cluster_Vendors" {
      class="state regular" label= <
      <table cellborder="0" border="0">
        <tr><td>Vendors</td></tr>
      </table>
      > style=rounded penwidth=2.0
      "Vendors" [shape=point style=invis margin=0 width=0 height=0 fixedsize=true]
        "ClientA" [margin=0 class="state regular" label= < 
      <table align="center" cellborder="0" border="2" style="rounded" width="48">
        <tr><td width="48" cellpadding="7">ClientA</td></tr>
      </table>
    >]
    "ClientN+1" [margin=0 class="state regular" label= < 
      <table align="center" cellborder="0" border="2" style="rounded" width="48">
        <tr><td width="48" cellpadding="7">ClientN+1</td></tr>
      </table>
    >]
    "ClientN" [margin=0 class="state regular" label= < 
      <table align="center" cellborder="0" border="2" style="rounded" width="48">
        <tr><td width="48" cellpadding="7">ClientN</td></tr>
      </table>
    >]
  
    }
      "note_initial" [color=black fontcolor=black label="Descripcion del proceso de Operacion\lUnidades de Negocio La Xalapena:\lToluca\lXalapa\l" shape=note fontsize=10 fillcolor="#ffffcc" penwidth=1.0]
      "initial" -> "note_initial" [style=dashed arrowtail=none arrowhead=none]
      "note_Providers" [color=black fontcolor=black label="Proveedores\l" shape=note fontsize=10 fillcolor="#ffffcc" penwidth=1.0]
      "Providers" -> "note_Providers" [style=dashed arrowtail=none arrowhead=none]
      "note_Warehouse" [color=black fontcolor=black label="Almacen\l" shape=note fontsize=10 fillcolor="#ffffcc" penwidth=1.0]
      "Warehouse" -> "note_Warehouse" [style=dashed arrowtail=none arrowhead=none]
      "note_Orders" [color=black fontcolor=black label="Pedidos\l" shape=note fontsize=10 fillcolor="#ffffcc" penwidth=1.0]
      "Orders" -> "note_Orders" [style=dashed arrowtail=none arrowhead=none]
      "note_FinishedProduct" [color=black fontcolor=black label="ProcesoProductoTerminado\l" shape=note fontsize=10 fillcolor="#ffffcc" penwidth=1.0]
      "FinishedProduct" -> "note_FinishedProduct" [style=dashed arrowtail=none arrowhead=none]
      "note_Sales" [color=black fontcolor=black label="Ventas\l" shape=note fontsize=10 fillcolor="#ffffcc" penwidth=1.0]
      "Sales" -> "note_Sales" [style=dashed arrowtail=none arrowhead=none]
      "note_PuntoVenta" [color=black fontcolor=black label="Vendedores\l" shape=note fontsize=10 fillcolor="#ffffcc" penwidth=1.0]
      "PuntoVenta" -> "note_PuntoVenta" [style=dashed arrowtail=none arrowhead=none]
      "note_Vendors" [color=black fontcolor=black label="Clientes\l" shape=note fontsize=10 fillcolor="#ffffcc" penwidth=1.0]
      "Vendors" -> "note_Vendors" [style=dashed arrowtail=none arrowhead=none]
      "note_AccountsReceivable" [color=black fontcolor=black label="CuentasPorCobrar\l" shape=note fontsize=10 fillcolor="#ffffcc" penwidth=1.0]
      "AccountsReceivable" -> "note_AccountsReceivable" [style=dashed arrowtail=none arrowhead=none]
      "note_Incomes" [color=black fontcolor=black label="Ingresos\l" shape=note fontsize=10 fillcolor="#ffffcc" penwidth=1.0]
      "Incomes" -> "note_Incomes" [style=dashed arrowtail=none arrowhead=none]
      "note_Reports" [color=black fontcolor=black label="Motor de Reportes :\lApi/WebService\lClientes Para Visualizar Reportes:\lAndroid\lWeb\lIOS\l" shape=note fontsize=10 fillcolor="#ffffcc" penwidth=1.0]
      "Reports" -> "note_Reports" [style=dashed arrowtail=none arrowhead=none]

    "Providers" -> "Raw" [label="Entrada de Materia Prima en Almacen   \l" class="transition"]
    "Providers" -> "Finished" [label="Entrada de Productos Finales en Almacen   \l" color="blue" fontcolor="blue" class="transition"]
    "Raw" -> "FinishedProduct" [label="Procesamiento de la materia Prima en Producto Final   \l" class="transition"]
      "i_note_tr_FinishedProduct_Finished_4" [shape=point style=invis margin=0 width=0 height=0 fixedsize=true]
      "FinishedProduct" -> "i_note_tr_FinishedProduct_Finished_4" [arrowhead=none color="blue"]
      "i_note_tr_FinishedProduct_Finished_4" -> "Finished" [label="Producto listo para venta   \l" color="blue" fontcolor="blue"]
      "i_note_tr_FinishedProduct_Finished_4" -> "note_tr_FinishedProduct_Finished_4" [style=dashed arrowtail=none arrowhead=none weight=0]
      "note_tr_FinishedProduct_Finished_4" [label="calculo preliminar de producto Terminado\l" shape=note fontsize=10 color=black fontcolor=black fillcolor="#ffffcc" penwidth=1.0]
    "FinishedProduct" -> "Waste" [label="merma de material   \l" class="transition"]
      "i_note_tr_Orders_Sales_6" [shape=point style=invis margin=0 width=0 height=0 fixedsize=true]
      "Orders" -> "i_note_tr_Orders_Sales_6" [arrowhead=none]
      "i_note_tr_Orders_Sales_6" -> "Sales" [label="Pedidos de Producto   \l"]
      "i_note_tr_Orders_Sales_6" -> "note_tr_Orders_Sales_6" [style=dashed arrowtail=none arrowhead=none weight=0]
      "note_tr_Orders_Sales_6" [label="Pedidos/Solicitudes/Requerimentos\l" shape=note fontsize=10 color=black fontcolor=black fillcolor="#ffffcc" penwidth=1.0]
    "Sales" -> "Incomes" [label="Contabilizacion de Ventas a Ingresos   \l" class="transition"]
    "Sales" -> "AccountsReceivable" [label="Cuentas por acreditarse   \l" class="transition"]
    "PuntoVenta" -> "Vendors" [label="Despacho de Pedidos de los Productos   \l" lhead="cluster_Vendors" class="transition"]
    "PuntoVenta" -> "Waste" [label="Devoluciones y  Cambios de Producto   \l" class="transition"]
    "PuntoVenta" -> "Sales" [label="Entrega de Pagos   \l" color="red" fontcolor="red" class="transition"]
    "PuntoVenta" -> "AccountsReceivable" [label="Entrega de pagos a Credito   \l" class="transition"]
    "Vendors" -> "AccountsReceivable" [label="Pago de Creditos   \l" ltail="cluster_Vendors" class="transition"]
    "Vendors" -> "Orders" [label="Pedido de Productos   \l" ltail="cluster_Vendors" color="purple" fontcolor="purple" class="transition"]
    "Vendors" -> "Sales" [label="Pago de Productos   \l" ltail="cluster_Vendors" color="red" fontcolor="red" class="transition"]
    "Vendors" -> "PuntoVenta" [label="Pago de Productos   \l" ltail="cluster_Vendors" color="red" fontcolor="red" class="transition"]
    "AccountsReceivable" -> "Vendors" [label="Solicitud de Pagos   \l" lhead="cluster_Vendors" class="transition"]
    "AccountsReceivable" -> "Incomes" [label="Liberacion de Pagos   \l" class="transition"]
      "i_note_tr_Finished_Reports_19" [shape=point style=invis margin=0 width=0 height=0 fixedsize=true]
      "Finished" -> "i_note_tr_Finished_Reports_19" [arrowhead=none]
      "i_note_tr_Finished_Reports_19" -> "Reports" [label="Projecciones de Indicadores   \l"]
      "i_note_tr_Finished_Reports_19" -> "note_tr_Finished_Reports_19" [style=dashed arrowtail=none arrowhead=none weight=0]
      "note_tr_Finished_Reports_19" [label="Conciliaciones\l" shape=note fontsize=10 color=black fontcolor=black fillcolor="#ffffcc" penwidth=1.0]
    "Sales" -> "Reports" [label="conciliaciones con reportes de Projeccion de indicadores   \l" class="transition"]
    "Finished" -> "Sales" [label="Producto Final hacia Ventas   \l" class="transition"]
    "initial" -> "Providers" [label="Inicio de la Operacion   \l" class="transition"]
}
