digraph "state transitions" {
  fontname="Helvetica" fontsize=12 penwidth=2.0 splines=true ordering=out compound=true overlap=scale nodesep=0.3 ranksep=0.1 rankdir=LR
  node [shape=plaintext style=filled fillcolor=transparent fontname=Helvetica fontsize=12 penwidth=2.0]
  edge [fontname=Helvetica fontsize=10]

    subgraph "cluster_tableRelations.parallels" {
      label= <
      <table cellborder="0" border="0">
        <tr><td>tableRelations.parallels</td></tr>
      </table>
      > style=rounded penwidth=2.0
      "tableRelations.parallels" [shape=point style=invis margin=0 width=0 height=0 fixedsize=true]
        subgraph "cluster_Tables" {
      label= <
      <table cellborder="0" border="0">
        <tr><td>Tables</td></tr>
          <hr/>
          <tr><td align="left">Zam[ desp_importtodesp ]-Copiloto[ ws_georeference_view_post_services ]</td></tr>
      </table>
      > style="dashed" penwidth=1
      "Tables" [shape=point style=invis margin=0 width=0 height=0 fixedsize=true]
        "id_consecutivo.int" [margin=0 label= < 
      <table align="center" cellborder="0" border="2" style="rounded" width="48">
        <tr><td width="48" cellpadding="7">id_consecutivo.int</td></tr>
      </table>
    >]
    "null" [margin=0 label= < 
      <table align="center" cellborder="0" border="2" style="rounded" width="48">
        <tr><td width="48" cellpadding="7">null</td></tr>
      </table>
    >]
    "tipopaquete.char(1)" [margin=0 label= < 
      <table align="center" cellborder="0" border="2" style="rounded" width="48">
        <tr><td width="48" cellpadding="7">tipopaquete.char(1)</td></tr>
      </table>
    >]
    "set" [margin=0 label= < 
      <table align="center" cellborder="0" border="2" style="rounded" width="48">
        <tr><td width="48" cellpadding="7">set</td></tr>
      </table>
    >]
    "idmensaje.int" [margin=0 label= < 
      <table align="center" cellborder="0" border="2" style="rounded" width="48">
        <tr><td width="48" cellpadding="7">idmensaje.int</td></tr>
      </table>
    >]
    "mensaje.text" [margin=0 label= < 
      <table align="center" cellborder="0" border="2" style="rounded" width="48">
        <tr><td width="48" cellpadding="7">mensaje.text</td></tr>
      </table>
    >]
    "zipcode.varchar(8)" [margin=0 label= < 
      <table align="center" cellborder="0" border="2" style="rounded" width="48">
        <tr><td width="48" cellpadding="7">zipcode.varchar(8)</td></tr>
      </table>
    >]
    "recvdate.varchar(10)" [margin=0 label= < 
      <table align="center" cellborder="0" border="2" style="rounded" width="48">
        <tr><td width="48" cellpadding="7">recvdate.varchar(10)</td></tr>
      </table>
    >]
    "created.datetime" [margin=0 label= < 
      <table align="center" cellborder="0" border="2" style="rounded" width="48">
        <tr><td width="48" cellpadding="7">created.datetime</td></tr>
      </table>
    >]
    "recvtime.varchar(11)" [margin=0 label= < 
      <table align="center" cellborder="0" border="2" style="rounded" width="48">
        <tr><td width="48" cellpadding="7">recvtime.varchar(11)</td></tr>
      </table>
    >]
    "msgdate.varchar(10)" [margin=0 label= < 
      <table align="center" cellborder="0" border="2" style="rounded" width="48">
        <tr><td width="48" cellpadding="7">msgdate.varchar(10)</td></tr>
      </table>
    >]
    "msgtime.varchar(11)" [margin=0 label= < 
      <table align="center" cellborder="0" border="2" style="rounded" width="48">
        <tr><td width="48" cellpadding="7">msgtime.varchar(11)</td></tr>
      </table>
    >]
    "posdate.varchar(10)" [margin=0 label= < 
      <table align="center" cellborder="0" border="2" style="rounded" width="48">
        <tr><td width="48" cellpadding="7">posdate.varchar(10)</td></tr>
      </table>
    >]
    "postime.varchar(11)" [margin=0 label= < 
      <table align="center" cellborder="0" border="2" style="rounded" width="48">
        <tr><td width="48" cellpadding="7">postime.varchar(11)</td></tr>
      </table>
    >]
    "prioridad.int" [margin=0 label= < 
      <table align="center" cellborder="0" border="2" style="rounded" width="48">
        <tr><td width="48" cellpadding="7">prioridad.int</td></tr>
      </table>
    >]
    "num_antena.varchar(50)" [margin=0 label= < 
      <table align="center" cellborder="0" border="2" style="rounded" width="48">
        <tr><td width="48" cellpadding="7">num_antena.varchar(50)</td></tr>
      </table>
    >]
    "idMovil.bigint" [margin=0 label= < 
      <table align="center" cellborder="0" border="2" style="rounded" width="48">
        <tr><td width="48" cellpadding="7">idMovil.bigint</td></tr>
      </table>
    >]
    "nombreantena.varchar(50)" [margin=0 label= < 
      <table align="center" cellborder="0" border="2" style="rounded" width="48">
        <tr><td width="48" cellpadding="7">nombreantena.varchar(50)</td></tr>
      </table>
    >]
    "id_unidad.varchar(6)" [margin=0 label= < 
      <table align="center" cellborder="0" border="2" style="rounded" width="48">
        <tr><td width="48" cellpadding="7">id_unidad.varchar(6)</td></tr>
      </table>
    >]
    "posicion.varchar(200)" [margin=0 label= < 
      <table align="center" cellborder="0" border="2" style="rounded" width="48">
        <tr><td width="48" cellpadding="7">posicion.varchar(200)</td></tr>
      </table>
    >]
    "poslat.decimal" [margin=0 label= < 
      <table align="center" cellborder="0" border="2" style="rounded" width="48">
        <tr><td width="48" cellpadding="7">poslat.decimal</td></tr>
      </table>
    >]
    "latitud.decimal" [margin=0 label= < 
      <table align="center" cellborder="0" border="2" style="rounded" width="48">
        <tr><td width="48" cellpadding="7">latitud.decimal</td></tr>
      </table>
    >]
    "poslon.decimal" [margin=0 label= < 
      <table align="center" cellborder="0" border="2" style="rounded" width="48">
        <tr><td width="48" cellpadding="7">poslon.decimal</td></tr>
      </table>
    >]
    "longitud.decimal" [margin=0 label= < 
      <table align="center" cellborder="0" border="2" style="rounded" width="48">
        <tr><td width="48" cellpadding="7">longitud.decimal</td></tr>
      </table>
    >]
    "status_qt.varchar(2)" [margin=0 label= < 
      <table align="center" cellborder="0" border="2" style="rounded" width="48">
        <tr><td width="48" cellpadding="7">status_qt.varchar(2)</td></tr>
      </table>
    >]
    "timezone.varchar(20)" [margin=0 label= < 
      <table align="center" cellborder="0" border="2" style="rounded" width="48">
        <tr><td width="48" cellpadding="7">timezone.varchar(20)</td></tr>
      </table>
    >]
    "ignition.varchar(10)" [margin=0 label= < 
      <table align="center" cellborder="0" border="2" style="rounded" width="48">
        <tr><td width="48" cellpadding="7">ignition.varchar(10)</td></tr>
      </table>
    >]
    "sistemaorigen.varchar(15)" [margin=0 label= < 
      <table align="center" cellborder="0" border="2" style="rounded" width="48">
        <tr><td width="48" cellpadding="7">sistemaorigen.varchar(15)</td></tr>
      </table>
    >]
    "clave_macro.varchar(10)" [margin=0 label= < 
      <table align="center" cellborder="0" border="2" style="rounded" width="48">
        <tr><td width="48" cellpadding="7">clave_macro.varchar(10)</td></tr>
      </table>
    >]
    "macro.int" [margin=0 label= < 
      <table align="center" cellborder="0" border="2" style="rounded" width="48">
        <tr><td width="48" cellpadding="7">macro.int</td></tr>
      </table>
    >]
    "tipomacro.char(1)" [margin=0 label= < 
      <table align="center" cellborder="0" border="2" style="rounded" width="48">
        <tr><td width="48" cellpadding="7">tipomacro.char(1)</td></tr>
      </table>
    >]
    "detmacro.varchar(250)" [margin=0 label= < 
      <table align="center" cellborder="0" border="2" style="rounded" width="48">
        <tr><td width="48" cellpadding="7">detmacro.varchar(250)</td></tr>
      </table>
    >]
    "status_registro.int" [margin=0 label= < 
      <table align="center" cellborder="0" border="2" style="rounded" width="48">
        <tr><td width="48" cellpadding="7">status_registro.int</td></tr>
      </table>
    >]
    "acuserecibo.char(1)" [margin=0 label= < 
      <table align="center" cellborder="0" border="2" style="rounded" width="48">
        <tr><td width="48" cellpadding="7">acuserecibo.char(1)</td></tr>
      </table>
    >]
    "desttype.int" [margin=0 label= < 
      <table align="center" cellborder="0" border="2" style="rounded" width="48">
        <tr><td width="48" cellpadding="7">desttype.int</td></tr>
      </table>
    >]
    "velocidad.int" [margin=0 label= < 
      <table align="center" cellborder="0" border="2" style="rounded" width="48">
        <tr><td width="48" cellpadding="7">velocidad.int</td></tr>
      </table>
    >]
    "angulo.int" [margin=0 label= < 
      <table align="center" cellborder="0" border="2" style="rounded" width="48">
        <tr><td width="48" cellpadding="7">angulo.int</td></tr>
      </table>
    >]
    "direccion.varchar(15)" [margin=0 label= < 
      <table align="center" cellborder="0" border="2" style="rounded" width="48">
        <tr><td width="48" cellpadding="7">direccion.varchar(15)</td></tr>
      </table>
    >]
    "fechaeta.datetime" [margin=0 label= < 
      <table align="center" cellborder="0" border="2" style="rounded" width="48">
        <tr><td width="48" cellpadding="7">fechaeta.datetime</td></tr>
      </table>
    >]
    "dist_faltante.int" [margin=0 label= < 
      <table align="center" cellborder="0" border="2" style="rounded" width="48">
        <tr><td width="48" cellpadding="7">dist_faltante.int</td></tr>
      </table>
    >]
  
    }
  
    }
      "note_tableRelations.parallels" [label="parallel states\lrealtion of the fields between tables\l" shape=note fontsize=10 fillcolor="#ffffcc" penwidth=1.0]
      "tableRelations.parallels" -> "note_tableRelations.parallels" [style=dashed arrowtail=none arrowhead=none]

    "id_consecutivo.int" -> "null" [label=" "]
    "tipopaquete.char(1)" -> "set" [label="[value:2]   \l"]
    "idmensaje.int" -> "null" [label=" "]
    "mensaje.text" -> "null" [label=" "]
    "zipcode.varchar(8)" -> "null" [label=" "]
    "recvdate.varchar(10)" -> "created.datetime" [label="[cast to date]   \l"]
    "recvtime.varchar(11)" -> "created.datetime" [label="[cast to time]   \l"]
    "msgdate.varchar(10)" -> "null" [label=" "]
    "msgtime.varchar(11)" -> "null" [label=" "]
    "posdate.varchar(10)" -> "null" [label=" "]
    "postime.varchar(11)" -> "null" [label=" "]
    "prioridad.int" -> "null" [label=" "]
    "num_antena.varchar(50)" -> "idMovil.bigint" [label=" "]
    "nombreantena.varchar(50)" -> "id_unidad.varchar(6)" [label=" "]
    "posicion.varchar(200)" -> "null" [label=" "]
    "poslat.decimal" -> "latitud.decimal" [label=" "]
    "poslon.decimal" -> "longitud.decimal" [label=" "]
    "status_qt.varchar(2)" -> "null" [label=" "]
    "timezone.varchar(20)" -> "set" [label="[value : CDT]   \l"]
    "ignition.varchar(10)" -> "set" [label="[value : A-E]   \l"]
    "sistemaorigen.varchar(15)" -> "set" [label="[value : Copiloto]   \l"]
    "clave_macro.varchar(10)" -> "macro.int" [label=" "]
    "tipomacro.char(1)" -> "set" [label="[value : R]   \l"]
    "detmacro.varchar(250)" -> "null" [label=" "]
    "status_registro.int" -> "set" [label="[value : 0]   \l"]
    "acuserecibo.char(1)" -> "set" [label="[value : N]   \l"]
    "desttype.int" -> "set" [label="[value : 1]   \l"]
    "velocidad.int" -> "null" [label=" "]
    "angulo.int" -> "null" [label=" "]
    "direccion.varchar(15)" -> "null" [label=" "]
    "fechaeta.datetime" -> "null" [label=" "]
    "dist_faltante.int" -> "null" [label=" "]
}
